04 Koalitionen
…
df_uebereinstimmungen <- df_bundesrat_bundesregierung |> 
  mutate(datum_wechsel = if_else(bundesrat_start > bund_start, bundesrat_start, bund_start)) |>
  select(datum_wechsel, everything()) |> 
  group_by(datum_wechsel, bund_koalition) |> 
  summarize(
    n_stimmen_uebereinstimmung = sum(koalition_gleich_oder_alleinreg * stimmen),
    n_stimmen_teilweise_uebereinstimmung = sum(koalition_mindestens_teilweise * stimmen),
    anteil_stimmen_uebereinstimmung = n_stimmen_uebereinstimmung / sum(stimmen),
    anteil_stimmen_teilweise_uebereinstimmung = n_stimmen_teilweise_uebereinstimmung / 
      sum(stimmen),
    .groups = "drop")
df_uebereinstimmungen

# A tibble: 77 × 6
   datum_wechsel       bund_koalition n_stimmen_uebereinstimmung
   <dttm>              <chr>                               <dbl>
 1 1996-06-12 00:00:00 Union, FDP                             16
 2 1997-11-26 00:00:00 Union, FDP                             16
 3 1998-05-26 00:00:00 Union, FDP                             16
 4 1998-10-27 00:00:00 SPD, Grüne                             35
 5 1998-11-17 00:00:00 SPD, Grüne                             35
 6 1999-04-13 00:00:00 SPD, Grüne                             30
 7 1999-09-29 00:00:00 SPD, Grüne                             27
 8 1999-10-11 00:00:00 SPD, Grüne                             27
 9 1999-10-14 00:00:00 SPD, Grüne                             23
10 2001-06-19 00:00:00 SPD, Grüne                             27
# ℹ 67 more rows
# ℹ 3 more variables: n_stimmen_teilweise_uebereinstimmung <dbl>,
#   anteil_stimmen_uebereinstimmung <dbl>,
#   anteil_stimmen_teilweise_uebereinstimmung <dbl>
…
