03 Wahl-O-Mat
…
write_rds(dfs_all_btw, here("03-wahlomat", "wahlomat-all-btw.rds"))

Datenexploration

Länge der Antworten nach Parteien

Code

df |> 
  select(party, text.comment) |> 
  mutate(text.comment.length = str_length(text.comment)) |> 
  count(party, wt = text.comment.length, sort = TRUE)

# A tibble: 28 × 2
   party                    n
   <chr>                <int>
 1 Verjüngungsforschung 18278
 2 MERA25               16871
 3 FDP                  16465
 4 SPD                  15876
 5 dieBasis             15628
 6 ÖDP                  15544
 7 GRÜNE                15237
 8 PdH                  15189
 9 MENSCHLICHE WELT     15182
10 AfD                  14917
# ℹ 18 more rows

Verteilung der Antworten

Code

df |> 
  count(party, answer.message) |> 
  filter(answer.message == "Neutral") |> 
  arrange(-n)

# A tibble: 25 × 3
   party                answer.message     n
   <chr>                <fct>          <int>
 1 Verjüngungsforschung Neutral           38
 2 dieBasis             Neutral           11
 3 BSW                  Neutral            8
 4 PdH                  Neutral            8
 5 MENSCHLICHE WELT     Neutral            6
 6 AfD                  Neutral            5
 7 BP                   Neutral            4
 8 Bündnis C            Neutral            4
 9 FDP                  Neutral            4
10 MLPD                 Neutral            4
# ℹ 15 more rows
…
df_thesen_uebereinstimmungen <- df |> 
  mutate(
    party = case_match(
      party, 
      "CDU / CSU" ~ "CDU/CSU", 
      .default = party)
    ) |> 
  filter(party %in% selected_parties) |> 
  count(id.statement, label, answer.message, name = "n_uebereinstimmende_parteien") |> 
  slice_max(order_by = n_uebereinstimmende_parteien, 
            n = 1, with_ties = FALSE, by = id.statement) |> 
  arrange(-n_uebereinstimmende_parteien)
df_thesen_uebereinstimmungen

# A tibble: 38 × 4
   id.statement label                      answer.message n_uebereinstimmende_…¹
          <int> <chr>                      <fct>                           <int>
 1           18 Projekte gegen Rechtsextr… Stimme zu                           6
 2           23 Verwerfen der Klimaziele   Stimme nicht …                      6
 3           26 Nationale Währung          Stimme nicht …                      6
 4            2 Streichung des Bürgergelds Stimme zu                           5
 5            5 Begrenzung der Mietpreise  Stimme zu                           5
 6            8 Rente nach 40 Beitragsjah… Stimme nicht …                      5
 7           13 Kompetenzen in der Schulp… Stimme zu                           5
 8           16 Abschaffung der Frauenquo… Stimme nicht …                      5
 9           20 Elternabhängiges BAföG     Stimme zu                           5
10           32 Strafrecht für unter 14-J… Stimme nicht …                      5
# ℹ 28 more rows
# ℹ abbreviated name: ¹​n_uebereinstimmende_parteien
…
