03 Zeitpunkt der Wahlentscheidung
…
         ) |> 
  mutate(
    unentschlossen = pre0403a == -98 | pre0403b == -98,
    # (Wahrscheinliche) Nichtwahl --> entschieden
    unentschlossen = ifelse(pre0401 %in% 4:5, FALSE, unentschlossen),
    # Bei Briefwahl 
    unentschlossen = ifelse(pre0401 == 6, FALSE, unentschlossen),
    year = factor(year)) |>
  mutate(days_to_election = max(pre_feldtag) + 1  - pre_feldtag, .by = year) |> 
  select(year, pre_feldtag, days_to_election, unentschlossen, pre0403a, pre0403b, 
         w_bil1t # Bildungsgewicht mit Transformationsgewicht (Tag)
         )
df_wahlabsicht_2009_2017

# A tibble: 19,925 × 7
   year  pre_feldtag days_to_election unentschlossen pre0403a  pre0403b  w_bil1t
   <fct>       <dbl>            <dbl> <lgl>          <dbl+lbl> <dbl+lbl>   <dbl>
 1 2017            4               59 FALSE          -83 [ung… -83 [ung…   1.27 
 2 2017           44               19 FALSE            1 [CDU…   2 [CDU]   1.33 
 3 2017           19               44 TRUE           -98 [wei… -98 [wei…   0.835
 4 2017           20               43 FALSE            4 [SPD]   4 [SPD]   1.59 
 5 2017           52               11 FALSE            1 [CDU…   2 [CDU]   1.98 
 6 2017           55                8 FALSE            1 [CDU…   2 [CDU]   0.234
 7 2017           17               46 FALSE            1 [CDU…   1 [CDU…   0.628
 8 2017           18               45 FALSE            4 [SPD]   4 [SPD]   0.953
 9 2017           51               12 FALSE          -97 [tri… -97 [tri…   0.223
10 2017           23               40 TRUE           -98 [wei… -98 [wei…   0.697
# ℹ 19,915 more rows
…
    ) |> 
  mutate(
    unentschlossen = pre006ba == -98 | pre006bb == -98,
    # (Wahrscheinliche) Nichtwahl --> entschieden
    unentschlossen = ifelse(pre005 %in% 4:5, FALSE, unentschlossen),
     # Bei Briefwahl
    unentschlossen = ifelse(pre005 == 6, FALSE, unentschlossen),
    year = factor(2021)) |>
  mutate(days_to_election = max(pre_feldtag) + 1  - pre_feldtag) |> 
  select(year, pre_feldtag, days_to_election, unentschlossen, pre006ba, pre006bb, 
         w_bil1t # Bildungsgewicht mit Transformationsgewicht (Tag)
         )
df_wahlabsicht_2021

# A tibble: 6,672 × 7
   year  pre_feldtag days_to_election unentschlossen pre006ba  pre006bb  w_bil1t
   <fct> <dbl+lbl>              <dbl> <lgl>          <dbl+lbl> <dbl+lbl>   <dbl>
 1 2021  11 [12.08.…               45 FALSE            4 [SPD]   4 [SPD]   1.95 
 2 2021  28 [29.08.…               28 TRUE           -98 [wei… -98 [wei…   0.727
 3 2021  24 [25.08.…               32 FALSE            6 [GRU…   6 [GRU…   0.639
 4 2021  26 [27.08.…               30 FALSE          322 [AfD] 322 [AfD]   0.650
 5 2021  35 [05.09.…               21 FALSE            5 [FDP]   5 [FDP]   0.568
 6 2021  33 [03.09.…               23 FALSE            6 [GRU…   6 [GRU…   0.818
 7 2021  47 [17.09.…                9 FALSE            6 [GRU…   6 [GRU…   0.728
 8 2021  39 [09.09.…               17 FALSE            6 [GRU…   6 [GRU…   0.594
 9 2021  26 [27.08.…               30 FALSE          322 [AfD] 322 [AfD]   1.09 
10 2021  18 [19.08.…               38 FALSE          322 [AfD] 322 [AfD]   1.22 
# ℹ 6,662 more rows
…
